[
  {
    "TTree_input_names": ["t1"],
    "TTree_output_name":  "liteTreeTTH_step7_cate9",
    "model_path": "/afs/cern.ch/work/c/ckoraka/ANN_keras",
    "model_output_branches": ["ttHbb","ttbb","ttcc","ttlf"],
    "copy_input_branches": ["eventNumber", "lumiBlock", "runNumber","N_btags_Medium","MEM","blr","N_btags_Loose","mass_tag_tag_min_deltaR","mass_tag_tag_max_mass","mass_jet_tag_tag_max_pT",
        "pT_tag_tag_min_deltaR","avgDeltaR_tag_tag","avgDeltaR_jet_jet","maxDeltaEta_tag_tag","maxDeltaEta_jet_jet",
        "H2_tag","H4_tag","R2_jet","centrality_tags","sphericity_tag","jet4_btag","pT_jet_tag_min_deltaR",
        "multiplicity_higgsLikeDijet15"]
  }
]

